<svg xmlns="http://www.w3.org/2000/svg" viewBox="0 0 640 512"><path d="M0 80.2c0-1.8.9-2.7 2.7-2.7h40.9c1.9 0 2.8.9 2.8 2.7v81.2c15.2-7.7 31.7-11.5 49.8-11.4 24 .1 44.2 6.2 60.3 18 18.7 13.5 28 31.9 28 55.3v136.1c0 1.9-.9 2.8-2.7 2.8h-27.3c-9.1 0-16.4-7.3-16.4-16.3V223.3c0-.9 2.7-27-45.8-27-48.6 0-45.8 26.2-45.8 27v136.1c0 1.9-.9 2.8-2.8 2.8h-41c-1.8 0-2.7-.9-2.7-2.8V80.2zm497.7 221.5c13.7 10.2 34.1 19.1 58.4 19.1 23.3 0 32.8-4.5 36.5-13.6 3-7.9-.6-16.1-12.2-21.2l-53.6-23.5c-21.4-9.4-33.8-24-37.2-43.6-5.7-33.7 22.2-53.3 22.7-53.7 13.2-9.6 32-15.4 58.5-15.4 19 0 37.4 3.3 55.1 9.9 1.3.5 1.9 1.3 1.9 2.6V207c0 2.1-2.3 3.4-4 2.4-39.7-20.7-76.6-12.3-84-6.8-6.6 4.9-6 12.5 2.6 16.1L600 244c16.5 7.1 28.1 18.4 34.9 34.1 5.5 12.6 6.6 25.6 3.1 39.1-9.6 36.9-44.9 45.5-45.6 45.8-10.5 3.1-23.6 4.3-36.3 4.3-16.6 0-32.6-2.7-48.2-8.2-9.7-3.4-14.6-10.3-14.6-20.7V304c0-2.1 2.3-3.7 4.4-2.3zM376.2 149.8c-31.7 0-104.2 20.1-104.2 103.5v183.5c0 .8.6 2.7 2.7 2.7h40.9c1.9 0 2.8-.9 2.8-2.7V348c16.5 12.7 35.8 19.1 57.7 19.1 60.5 0 108.7-48.5 108.7-108.7.1-60.3-48.2-108.6-108.6-108.6zm0 170.9c-17.2 0-31.9-6.1-44-18.2-12.2-12.2-18.2-26.8-18.2-44 0-34.5 27.6-62.2 62.2-62.2 34.5 0 62.2 27.6 62.2 62.2.1 34.3-27.3 62.2-62.2 62.2zm-124.6 38.7c0 1.9-.9 2.8-2.8 2.8h-40.9c-1.6 0-2.7-1.4-2.7-2.8V157.6c0-1.4 1.1-2.8 2.7-2.8h40.9c1.9 0 2.8.9 2.8 2.8v201.8M228.3 72.5c15.9 0 28.9 12.7 28.9 28.9 0 15.8-12.7 28.9-28.9 28.9s-28.9-13.3-28.9-28.9c.1-16 13-28.9 28.9-28.9"/></svg>
<!--
Font Awesome Free 5.2.0 by @fontawesome - https://fontawesome.com
License - https://fontawesome.com/license (Icons: CC BY 4.0, Fonts: SIL OFL 1.1, Code: MIT License)
-->
