<svg xmlns="http://www.w3.org/2000/svg" viewBox="0 0 512 512"><path d="M487.1 425c-1.4-11.2-19-23.1-28.2-31.9-5.1-5-29-23.1-30.4-29.9-1.4-6.6 9.7-21.5 13.3-28.9 5.1-10.7 8.8-23.7 11.3-32.6 18.8-66.1 20.7-156.9-6.2-211.2-10.2-20.6-38.6-49-56.4-62.5-42-31.7-119.6-35.3-170.1-16.6-14.1 5.2-27.8 9.8-40.1 17.1-33.1 19.4-68.3 32.5-78.1 71.6-24.2 10.8-31.5 41.8-30.3 77.8.2 7 4.1 15.8 2.7 22.4-.7 3.3-5.2 7.6-6.1 9.8-11.6 27.7-2.3 64 11.1 83.7 8.1 11.9 21.5 22.4 39.2 25.2.7 10.6 3.3 19.7 8.2 30.4 3.1 6.8 14.7 19 10.4 27.7-2.2 4.4-21 13.8-27.3 17.6C89 407.2 73.7 415 54.2 429c-12.6 9-32.3 10.2-29.2 31.1 2.1 14.1 10.1 31.6 14.7 45.8.7 2 1.4 4.1 2.1 6h422c4.9-15.3 9.7-30.9 14.6-47.2 3.4-11.4 10.2-27.8 8.7-39.7zM205.9 33.7c1.8-.5 3.4.7 4.9 2.4-.2 5.2-5.4 5.1-8.9 6.8-5.4 6.7-13.4 9.8-20 17.2-6.8 7.5-14.4 27.7-23.4 30-4.5 1.1-9.7-.8-13.6-.5-10.4.7-17.7 6-28.3 7.5 13.6-29.9 56.1-54 89.3-63.4zm-104.8 93.6c13.5-14.9 32.1-24.1 54.8-25.9 11.7 29.7-8.4 65-.9 97.6 2.3 9.9 10.2 25.4-2.4 25.7.3-28.3-34.8-46.3-61.3-29.6-1.8-21.5-4.9-51.7 9.8-67.8zm36.7 200.2c-1-4.1-2.7-12.9-2.3-15.1 1.6-8.7 17.1-12.5 11-24.7-11.3-.1-13.8 10.2-24.1 11.3-26.7 2.6-45.6-35.4-44.4-58.4 1-19.5 17.6-38.2 40.1-35.8 16 1.8 21.4 19.2 24.5 34.7 9.2.5 22.5-.4 26.9-7.6-.6-17.5-8.8-31.6-8.2-47.7 1-30.3 17.5-57.6 4.8-87.4 13.6-30.9 53.5-55.3 83.1-70 36.6-18.3 94.9-3.7 129.3 15.8 19.7 11.1 34.4 32.7 48.3 50.7-19.5-5.8-36.1 4.2-33.1 20.3 16.3-14.9 44.2-.2 52.5 16.4 7.9 15.8 7.8 39.3 9 62.8 2.9 57-10.4 115.9-39.1 157.1-7.7 11-14.1 23-24.9 30.6-26 18.2-65.4 34.7-99.2 23.4-44.7-15-65-44.8-89.5-78.8.7 18.7 13.8 34.1 26.8 48.4 11.3 12.5 25 26.6 39.7 32.4-12.3-2.9-31.1-3.8-36.2 7.2-28.6-1.9-55.1-4.8-68.7-24.2-10.6-15.4-21.4-41.4-26.3-61.4zm222 124.1c4.1-3 11.1-2.9 17.4-3.6-5.4-2.7-13-3.7-19.3-2.2-.1-4.2-2-6.8-3.2-10.2 10.6-3.8 35.5-28.5 49.6-20.3 6.7 3.9 9.5 26.2 10.1 37 .4 9-.8 18-4.5 22.8-18.8-.6-35.8-2.8-50.7-7 .9-6.1-1-12.1.6-16.5zm-17.2-20c-16.8.8-26-1.2-38.3-10.8.2-.8 1.4-.5 1.5-1.4 18 8 40.8-3.3 59-4.9-7.9 5.1-14.6 11.6-22.2 17.1zm-12.1 33.2c-1.6-9.4-3.5-12-2.8-20.2 25-16.6 29.7 28.6 2.8 20.2zM226 438.6c-11.6-.7-48.1-14-38.5-23.7 9.4 6.5 27.5 4.9 41.3 7.3.8 4.4-2.8 10.2-2.8 16.4zM57.7 497.1c-4.3-12.7-9.2-25.1-14.8-36.9 30.8-23.8 65.3-48.9 102.2-63.5 2.8-1.1 23.2 25.4 26.2 27.6 16.5 11.7 37 21 56.2 30.2 1.2 8.8 3.9 20.2 8.7 35.5.7 2.3 1.4 4.7 2.2 7.2H57.7zm240.6 5.7h-.8c.3-.2.5-.4.8-.5v.5zm7.5-5.7c2.1-1.4 4.3-2.8 6.4-4.3 1.1 1.4 2.2 2.8 3.2 4.3h-9.6zm15.1-24.7c-10.8 7.3-20.6 18.3-33.3 25.2-6 3.3-27 11.7-33.4 10.2-3.6-.8-3.9-5.3-5.4-9.5-3.1-9-10.1-23.4-10.8-37-.8-17.2-2.5-46 16-42.4 14.9 2.9 32.3 9.7 43.9 16.1 7.1 3.9 11.1 8.6 21.9 9.5-.1 1.4-.1 2.8-.2 4.3-5.9 3.9-15.3 3.8-21.8 7.1 9.5.4 17 2.7 23.5 5.9-.1 3.4-.3 7-.4 10.6zm53.4 24.7h-14c-.1-3.2-2.8-5.8-6.1-5.8s-5.9 2.6-6.1 5.8h-17.4c-2.8-4.4-5.7-8.6-8.9-12.5 2.1-2.2 4-4.7 6-6.9 9 3.7 14.8-4.9 21.7-4.2 7.9.8 14.2 11.7 25.4 11l-.6 12.6zm8.7 0c.2-4 .4-7.8.6-11.5 15.6-7.3 29 1.3 35.7 11.5H383zm83.4-37c-2.3 11.2-5.8 24-9.9 37.1-.2-.1-.4-.1-.6-.1H428c.6-1.1 1.2-2.2 1.9-3.3-2.6-6.1-9-8.7-10.9-15.5 12.1-22.7 6.5-93.4-24.2-78.5 4.3-6.3 15.6-11.5 20.8-19.3 13 10.4 20.8 20.3 33.2 31.4 6.8 6 20 13.3 21.4 23.1.8 5.5-2.6 18.9-3.8 25.1zM222.2 130.5c5.4-14.9 27.2-34.7 45-32 7.7 1.2 18 8.2 12.2 17.7-30.2-7-45.2 12.6-54.4 33.1-8.1-2-4.9-13.1-2.8-18.8zm184.1 63.1c8.2-3.6 22.4-.7 29.6-5.3-4.2-11.5-10.3-21.4-9.3-37.7.5 0 1 0 1.4.1 6.8 14.2 12.7 29.2 21.4 41.7-5.7 13.5-43.6 25.4-43.1 1.2zm20.4-43zm-117.2 45.7c-6.8-10.9-19-32.5-14.5-45.3 6.5 11.9 8.6 24.4 17.8 33.3 4.1 4 12.2 9 8.2 20.2-.9 2.7-7.8 8.6-11.7 9.7-14.4 4.3-47.9.9-36.6-17.1 11.9.7 27.9 7.8 36.8-.8zm27.3 70c3.8 6.6 1.4 18.7 12.1 20.6 20.2 3.4 43.6-12.3 58.1-17.8 9-15.2-.8-20.7-8.9-30.5-16.6-20-38.8-44.8-38-74.7 6.7-4.9 7.3 7.4 8.2 9.7 8.7 20.3 30.4 46.2 46.3 63.5 3.9 4.3 10.3 8.4 11 11.2 2.1 8.2-5.4 18-4.5 23.5-21.7 13.9-45.8 29.1-81.4 25.6-7.4-6.7-10.3-21.4-2.9-31.1zm-201.3-9.2c-6.8-3.9-8.4-21-16.4-21.4-11.4-.7-9.3 22.2-9.3 35.5-7.8-7.1-9.2-29.1-3.5-40.3-6.6-3.2-9.5 3.6-13.1 5.9 4.7-34.1 49.8-15.8 42.3 20.3zm299.6 28.8c-10.1 19.2-24.4 40.4-54 41-.6-6.2-1.1-15.6 0-19.4 22.7-2.2 36.6-13.7 54-21.6zm-141.9 12.4c18.9 9.9 53.6 11 79.3 10.2 1.4 5.6 1.3 12.6 1.4 19.4-33 1.8-72-6.4-80.7-29.6zm92.2 46.7c-1.7 4.3-5.3 9.3-9.8 11.1-12.1 4.9-45.6 8.7-62.4-.3-10.7-5.7-17.5-18.5-23.4-26-2.8-3.6-16.9-12.9-.2-12.9 13.1 32.7 58 29 95.8 28.1z"/></svg>
<!--
Font Awesome Free 5.2.0 by @fontawesome - https://fontawesome.com
License - https://fontawesome.com/license (Icons: CC BY 4.0, Fonts: SIL OFL 1.1, Code: MIT License)
-->
