<svg xmlns="http://www.w3.org/2000/svg" viewBox="0 0 428.07 512"><path d="M426.56 323.72c-3.09-6.59-8.97-11.13-16.35-12.88-2.47-11.27-5.88-16.8-6.19-17.63 1.3-1.48 2.56-2.97 2.84-3.32 10.42-12.93 3.62-31.86-14.19-36.33-10.02-9.64-19.09-14.17-26.54-17.9-7.14-3.57-4.29-2.17-10.99-5.19-1.78-8.71-2.37-28.97-5.2-43.19-2.54-12.79-7.66-22.06-15.56-28.15-3.16-6.84-7.59-13.74-12.93-18.81 24.84-38.08 31.38-75.69 13.19-95.39-8.1-8.77-20.13-12.93-34.52-12.93-20.26 0-45.18 8.26-70.34 23.54 0 0-16.38-13.18-16.73-13.46-70.08-55.19-268.28 188.7-198.32 242l18.06 13.8c-11.34 31.54 4.43 69.14 37.29 81.21 7.26 2.67 15.14 3.97 23.31 3.51 0 0 53.09 97.36 165.1 97.39 129.58.04 162.55-126.72 162.9-127.86 0 .01 10.5-15.51 5.17-28.41zM20.12 267.95c-14.2-23.96 10.51-73.19 28.09-101.17C91.66 97.63 163.98 43.06 196.82 50.85l9.03-3.46c.03.03 24.67 20.85 24.7 20.87 16.97-10.19 38.58-20.57 58.8-22.64-12.3 2.77-27.29 9.15-45.05 20.01-.43.25-42.02 28.32-67.43 53.52-13.85 13.73-69.45 80.41-69.4 80.35 10.16-19.23 16.86-28.67 32.94-48.9 9.1-11.44 18.81-22.57 28.74-32.84 4.61-4.77 9.28-9.36 13.95-13.71 3.21-2.99 6.44-5.87 9.65-8.62 1.48-1.27 2.96-2.5 4.43-3.71l.01-.01L164.6 64.8l1.72 12.06 23.69 20.87s-20.96 14.11-31.39 23.01c-41.79 35.66-82.8 90.4-98.06 143.69l.73-.03c-7.6 4.19-15.14 10.91-21.73 20.05-.16-.04-17.04-12.43-19.44-16.5zm69.11 100.09c-25.03 0-45.33-21.37-45.33-47.72 0-26.36 20.29-47.72 45.33-47.72 6.49 0 12.66 1.44 18.24 4.02 0 0 9.63 4.86 12.34 27.81 2.82-7.17 4.24-13.06 4.24-13.06 3.23 9.88 4.88 20.26 4.23 30.76 2.68-3.56 5.55-10.27 5.55-10.27 5 29.33-16.4 56.18-44.6 56.18zm55.8-168.53s19.49-37.06 62.33-61.57c-3.19-.51-10.99.48-12.36.64 7.78-6.69 22.24-11.16 32.23-13.19-2.92-1.86-9.89-2.33-13.34-2.42-1.02-.03-1.01-.02-2.22.03 9.4-5.25 26.82-8.34 42.65-5.55-1.99-2.64-6.5-4.57-9.67-5.51-.28-.08-1.52-.39-1.52-.39l1.19-.28c9.54-1.84 20.69.15 29.5 3.69-1-2.32-3.45-5.03-5.29-6.74-.19-.18-1.29-.97-1.29-.97 9.22 1.91 18.06 5.94 24.71 10.5-.9-1.75-3.14-4.69-4.69-6.29 8.81 2.52 18.71 8.81 22.95 17.82.1.2.37.94.4 1.03-16.7-12.84-65.44-9.2-114.24 22.42-22.33 14.48-38.71 30.32-51.34 46.78zm263.32 146.34c-.59 1.15-6.73 34.4-41.86 62.01-44.37 34.86-102.66 31.33-124.67 11.8-11.76-11-16.85-26.73-16.85-26.73s-1.33 8.87-1.56 12.35c-8.87-15.09-8.12-33.52-8.12-33.52s-4.73 8.83-6.9 13.77c-6.53-16.62-3.16-33.78-3.16-33.78l-5.16 7.7s-2.42-18.81 3.52-34.47c6.36-16.74 18.68-28.9 21.11-30.42-9.35-2.97-20.12-11.49-20.14-11.51 0 0 4.28.28 7.26-.4 0 0-18.9-13.54-22.22-34.26 2.74 3.38 8.49 7.21 8.49 7.21-1.86-5.42-2.99-17.49-1.25-29.36l.01-.01c3.58-22.68 22.27-37.45 43.44-37.27 22.54.2 37.65 4.93 56.55-12.5 4-3.69 7.19-6.87 12.81-8.11.59-.13 2.06-.75 5.07-.75 3.05 0 5.98.69 8.67 2.29 10.25 6.1 12.46 22.01 13.56 33.68 4.07 43.28 2.43 35.57 19.94 44.49 8.36 4.25 17.74 8.29 28.43 19.72.03.03.08.09.08.09h.13c9.01.22 13.65 7.31 9.5 12.47-30.23 36.1-72.46 53.39-119.51 54.84-1.94.05-6.32.15-6.34.15-19.01.58-25.19 25.16-13.27 39.95 7.54 9.35 22.03 12.42 33.97 12.46l.17-.06c51.45 1.04 103.14-35.37 112.07-55.44.06-.15.61-1.42.61-1.42-2.07 2.43-52.18 49.61-113.08 47.9 0 0-6.66-.14-12.93-1.6-8.27-1.92-14.55-5.56-16.95-13.8 5.05 1.01 11.45 1.66 18.87 1.66 43.96 0 75.63-19.98 72.33-20.25-.13 0-.26.03-.48.08-5.13 1.19-57.97 21.66-91.37 11.16.08-1.02.24-2.01.48-2.9 2.97-9.95 8.25-8.56 16.79-8.93 30.48-1.01 55.07-8.68 73.5-17.43 19.65-9.33 34.63-21.35 40.03-27.42 7 11.79 6.96 26.92 6.96 26.92s2.74-.96 6.38-.96c11.38.01 13.73 10.23 5.09 20.6zm-149.29 13.7c0-.05-.01-.1-.01-.15.01.05.01.1.01.15zm-.01-.21c-.01-.13-.01-.26-.02-.39-.02-.65-.03-1.33 0-2.02-.02.74-.02 1.42 0 2.02.01.13.01.27.02.39zm.12 1.46c0 .02 0 .04.01.06 0-.02 0-.04-.01-.06zm.02.12c.2 1.58.51 2.31.55 2.4-.23-.49-.42-1.34-.55-2.4zM193.96 59.68l2.87-8.83 4.88 17.72-6.03-1.95-1.72-6.94zm22.38 17.72l-3.62-12.59 9.97 8.36c-2.24 1.44-4.36 2.86-6.35 4.23zm42.71 281.94c-.01-.13-.01-.26-.02-.39.01.13.01.27.02.39zm-.01-.39c-.02-.65-.03-1.33 0-2.02-.03.75-.03 1.42 0 2.02zm.02.6c0-.05-.01-.1-.01-.15m.13 1.46c0-.02 0-.04-.01-.06m.02.12c.2 1.58.51 2.31.55 2.4-.23-.49-.42-1.34-.55-2.4zm52.1-138.61c-.07-3.36.47-8.92 3.63-9.95h.01c5.41-1.88 12.58 11.98 12.91 24.28-4.28-2.14-9.3-3.05-14.47-2.6-1.3-3.97-1.92-7.7-2.08-11.73zM205.38 85.27l-13.59-11.38 20.57 6.28c-2.65 1.88-5 3.6-6.98 5.1zm27.7 166.94c-3.41 1.3-5.83 2.31-7 2.14-1.89-.28-.06-3.75 4.08-7.11 8.33-6.64 19.76-8.7 29.53-5.07 4.28 1.57 9.08 4.72 11.6 8.39.95 1.39 1.21 2.44.82 2.88-.77.9-3.51-.31-7.55-1.89-10.35-3.86-17.98-4.45-31.48.66zm14.55 14.53c-2.31.94-3.81 1.66-4.42 1.17-.62-.48-.01-2.42 2.15-4.51 1.88-1.81 3.83-2.83 6.07-3.77.35-.15.72-.28 1.1-.38 1.04-.28 2.09-.63 3.23-.8 9.12-1.55 15.8 3.51 14.93 4.98-.39.69-2.08.53-4.6.36-5.23-.36-10.71-.27-18.46 2.95zM60.86 323.12zm24.3-25.78c-1.85.39-.81.17-2.64.68a7 7 0 0 0-.77.25c-.58.27-1.11.45-1.62.73-.43.24-4.07 1.86-7.03 5.48-3.99 4.95-5.44 11.43-5.19 17.67.24 6.06 2.02 9.41 2.35 10.23 1.38 2.96-1.85 3.57-4.79.39l-.01-.01c-2.35-2.49-3.86-6.29-4.6-9.66-2.98-13.95 3.24-27.97 17.61-33.57.8-.32 1.74-.51 2.5-.73h-.01c1.47-.44 6.72-1.5 12.07-.67 5.87.91 11.04 3.85 14.33 7.67l.01.01c2.53 2.87 4.43 6.92 4.09 10.53v.01c-.13 1.5-.79 3.65-2.14 4.21-.5.21-1.01.1-1.36-.25-.98-.96-.22-2.93-2.6-6.3-3.17-4.47-10.31-8.76-20.2-6.67zm30.28 31.17c1.88 10.82-6 20.5-15.52 20.7-6.67.15-10.31-4.02-9.66-4.93.3-.43 1.32-.24 2.88-.01 8.5 1.32 13.66-3.86 14.9-9.29.02-.09.35-1.54.34-2.54.07-.88-.03-1.76-.16-2.56-1-5.62-7.45-6.68-11.6-11.15-3.72-4.04-2.99-9.22-.65-11.71 2.81-2.77 6.83-1.76 6.78-.78 0 .52-.97.91-2.17 1.74-1.56 1.1-1.77 2.16-1.37 3.98.26 1 .71 1.65 1.68 2.42 3.48 2.76 12.85 4.7 14.55 14.13zm212.87-81.47c2.58.4 4.22 3.59 3.67 7.13-.55 3.54-3.09 6.08-5.67 5.67-2.58-.4-4.22-3.59-3.67-7.13.56-3.53 3.09-6.07 5.67-5.67zm-28.33 10.31c1.42-2.59 5.44-3.11 8.99-1.16 3.55 1.94 5.27 5.62 3.86 8.2-1.42 2.59-5.44 3.11-8.99 1.16-3.55-1.94-5.28-5.61-3.86-8.2z"/></svg>
<!--
Font Awesome Free 5.2.0 by @fontawesome - https://fontawesome.com
License - https://fontawesome.com/license (Icons: CC BY 4.0, Fonts: SIL OFL 1.1, Code: MIT License)
-->
