<svg xmlns="http://www.w3.org/2000/svg" viewBox="0 0 355.52 512"><path d="M232.6 299.29c15.57 0 27.15 11.46 27.15 26.96 0 15.55-11.62 26.96-27.15 26.96-15.7 0-27.15-11.57-27.15-26.96 0-15.51 11.58-26.96 27.15-26.96zM99.01 326.25c0-15.61 11.68-26.96 27.15-26.96 15.57 0 27.15 11.46 27.15 26.96 0 15.41-11.47 26.96-27.15 26.96-15.44 0-27.15-11.31-27.15-26.96m78.75-167.3C143 158.95 75.45 178.77 45.25 227L0 0v335.48C0 433.13 79.61 512 177.76 512c98.24 0 177.76-78.95 177.76-176.52 0-97.46-79.39-176.53-177.76-176.53zm0 308.12c-73.27 0-132.51-58.9-132.51-131.59 0-72.68 59.24-131.59 132.51-131.59 73.27 0 132.51 58.91 132.51 131.59s-59.25 131.59-132.51 131.59z"/></svg>
<!--
Font Awesome Free 5.2.0 by @fontawesome - https://fontawesome.com
License - https://fontawesome.com/license (Icons: CC BY 4.0, Fonts: SIL OFL 1.1, Code: MIT License)
-->
