<svg xmlns="http://www.w3.org/2000/svg" viewBox="0 0 513.52 512"><path d="M96.24 62.81C142.91 26.57 202.15 6.57 261.28 8.08c29.67-.38 59.29 5.38 87.17 15.37-24.2-4.64-49.18-6.35-73.6-2.45-43 5.35-83.26 27.23-112.16 59.35 5.69-.99 10.81-3.68 16.07-5.88 18.19-7.89 37.6-13.29 57.4-14.87 19.8-2.14 39.75-.43 59.45 1.93-14.46 2.79-29.2 4.58-43.11 9.61-34.53 11.11-65.46 33.26-86.55 62.82-13.84 19.77-23.7 42.99-24.74 67.33-.35 16.54 5.23 34.91 19.89 44.17 11.13 6.66 24.85 9.39 37.63 6.76 15.49-2.47 30.16-8.67 43.73-16.38 11.55-6.84 22.73-14.59 32.05-24.32 3.8-3.23 2.54-8.48 2.63-12.83-2.13-.34-4.4-1.11-6.32.3a203.975 203.975 0 0 1-35.93 15.42c-20.07 6.19-42.28 8.48-62.28.78 12.83 1.73 26.14.31 37.85-5.46 20.29-9.75 36.92-25.27 54.6-38.88 27.84-21.29 57.64-40.11 89.17-55.47 25.78-12.01 53.09-22.85 81.81-24.2-15.68 13.76-32.25 26.6-46.92 41.51-14.55 14.04-27.54 29.58-40.23 45.31-3.53 4.61-8.98 6.96-13.62 10.19-22.24 15.03-40.6 35.96-52.04 60.28-9.36 19.74-14.55 41.97-11.81 63.84 1.95 13.73 8.74 27.67 20.96 35.01 12.94 7.99 29.14 8.09 43.61 5.11 32.9-7.47 61.61-28.97 81.28-56 20.5-27.6 30.61-62.38 29.25-96.64-.52-7.52-1.58-15-1.67-22.55 8.02 19.54 14.87 39.83 16.7 61.01 2.01 14.32.75 28.84-1.62 43.02-1.92 11.02-5.69 21.58-7.81 32.53 20.36-22.73 34.17-51.24 39.46-81.31 5.72-35.37.58-72.36-14.25-104.95 20.84 32.12 32.43 69.79 35.81 107.8.5 12.77.5 25.58 0 38.34-2.91 34.26-12.97 67.95-29.76 98-26.2 47.48-68.2 85.89-117.54 108.32-78.52 36.34-175.2 31.41-248.72-14.72-38.84-23.78-71.06-58.32-91.68-98.96C10.72 337.43 2.04 305.5 0 273.13V241.7c3.94-69.97 40.99-136.32 96.24-178.89m222.65 80.57c5.51-.8 10.82-2.57 16.02-4.5 4.99-1.77 9.27-5.95 10.35-11.25-8.91 5-17.95 9.95-26.37 15.75z"/></svg>
<!--
Font Awesome Free 5.2.0 by @fontawesome - https://fontawesome.com
License - https://fontawesome.com/license (Icons: CC BY 4.0, Fonts: SIL OFL 1.1, Code: MIT License)
-->
