<svg xmlns="http://www.w3.org/2000/svg" viewBox="0 0 440 512"><path d="M201.6 127.4c4.1-3.2 10.3-3 13.8.5l170 167.3-2.7-2.7 44.3 41.3c3.7 3.5 3.3 9-.7 12.2l-198 163.9c-9.9 7.6-17.3.8-17.3.8L2.3 314.6c-3.5-3.5-3-9 1.2-12.2l45.8-34.9c4.2-3.2 10.4-3 13.9.5l151.9 147.5c3.7 3.5 10 3.7 14.2.4l93.2-74c4.1-3.2 4.5-8.7.9-12.2l-84-81.3c-3.6-3.5-9.9-3.7-14-.5l-.1.1c-4.1 3.2-10.4 3-14-.5l-68.1-64.3c-3.5-3.5-3.1-9 1.1-12.2l57.3-43.6m14.8 257.3c3.7 3.5 10.1 3.7 14.3.4l50.2-38.8-.3-.3 7.7-6c4.2-3.2 4.6-8.7.9-12.2l-57.1-54.4c-3.6-3.5-10-3.7-14.2-.5l-.1.1c-4.2 3.2-10.5 3.1-14.2-.4L109 180.8c-3.6-3.5-3.1-8.9 1.1-12.2l92.2-71.5c4.1-3.2 10.3-3 13.9.5l160.4 159c3.7 3.5 10 3.7 14.1.5l45.8-35.8c4.1-3.2 4.4-8.7.7-12.2L226.7 2.5c-1.5-1.2-8-5.5-16.3 1.1L3.6 165.7c-4.2 3.2-4.8 8.7-1.2 12.2l42.3 41.7"/></svg>
<!--
Font Awesome Free 5.2.0 by @fontawesome - https://fontawesome.com
License - https://fontawesome.com/license (Icons: CC BY 4.0, Fonts: SIL OFL 1.1, Code: MIT License)
-->
