https://tcpdf.org/examples/
# writeHTML($html, $ln=true, $fill=false, $reseth=false, $cell=false, $align='')

# writeHTMLCell($w, $h, $x, $y, $html='', $border=0, $ln=0, $fill=0, $reseth=true, $align='', $autopadding=true)

# MultiCell($w, $h, $txt, $border=0, $align='J', $fill=0, $ln=1, $x='', $y='', $reseth=true, $stretch=0, $ishtml=false, $autopadding=true, $maxh=0)

# Cell($w, $h=0, $txt='', $border=0, $ln=0, $align='', $fill=0, $link='', $stretch=0, $ignore_min_height=false, $calign='T', $valign='M')

# Image($file, $x='', $y='', $w=0, $h=0, $type='', $link='', $align='', $resize=false, $dpi=300, $palign='', $ismask=false, $imgmask=false, $border=0, $fitbox=false, $hidden=false, $fitonpage=false)

